Tidytuesday
…
waste_vs_gdp_missing = waste_vs_gdp %>% 
  group_by(entity) %>% 
  summarise(nMissing = per_capita_plastic_waste_kilograms_per_person_per_day %>% is.na %>% sum) %>% 
  dplyr::arrange(desc(nMissing))

waste_vs_gdp_cleaned = waste_vs_gdp %>% 
  dplyr::transmute(
    entity, code, year, 
    plastic_standard = per_capita_plastic_waste_kilograms_per_person_per_day,
    pop = total_population_gapminder) %>% 
  na.omit()

waste_vs_gdp_cleaned

## # A tibble: 175 x 5
##    entity              code   year plastic_standard      pop
##    <chr>               <chr> <dbl>            <dbl>    <dbl>
##  1 Albania             ALB    2010            0.069  3204284
##  2 Algeria             DZA    2010            0.144 35468208
##  3 Angola              AGO    2010            0.062 19081912
##  4 Anguilla            AIA    2010            0.252    15358
##  5 Antigua and Barbuda ATG    2010            0.66     88710
##  6 Argentina           ARG    2010            0.183 40412376
##  7 Aruba               ABW    2010            0.252   107488
##  8 Australia           AUS    2010            0.112 22268384
##  9 Bahamas             BHS    2010            0.39    342877
## 10 Bahrain             BHR    2010            0.132  1261835
## #  with 165 more rows
…
