Starting letter of R packages
…
cran_pkg %>% head

## [1] "A3"       "aaSEA"    "abbyyR"   "abc"      "abc.data" "ABC.RAP"

cran_df = tibble::tibble(
  pkg_name = cran_pkg,
  repo = "CRAN"
)

cran_df

## # A tibble: 14,762 x 2
##    pkg_name    repo 
##    <chr>       <chr>
##  1 A3          CRAN 
##  2 aaSEA       CRAN 
##  3 abbyyR      CRAN 
##  4 abc         CRAN 
##  5 abc.data    CRAN 
##  6 ABC.RAP     CRAN 
##  7 ABCanalysis CRAN 
##  8 abcdeFBA    CRAN 
##  9 ABCoptim    CRAN 
## 10 ABCp2       CRAN 
## #  with 14,752 more rows
…
bioc_types = c("BioCsoft", "BioCann", "BioCexp", "BioCworkflows")
names(bioc_types) = bioc_types
bioc_pkgs = purrr::map_dfr(
  .x = bioc_types,
  .f = ~ BiocPkgTools::biocPkgList(version = "3.10", repo = .x), 
  .id = "repo")

bioc_df = tibble::tibble(
  pkg_name = bioc_pkgs$Package,
  repo = bioc_pkgs$repo
)

bioc_df

## # A tibble: 3,108 x 2
##    pkg_name      repo    
##    <chr>         <chr>   
##  1 a4            BioCsoft
##  2 a4Base        BioCsoft
##  3 a4Classif     BioCsoft
##  4 a4Core        BioCsoft
##  5 a4Preproc     BioCsoft
##  6 a4Reporting   BioCsoft
##  7 ABAEnrichment BioCsoft
##  8 ABarray       BioCsoft
##  9 abseqR        BioCsoft
## 10 ABSSeq        BioCsoft
## #  with 3,098 more rows
…
combine_df = dplyr::bind_rows(cran_df, bioc_df) %>% 
  dplyr::mutate(
    first_letter = pkg_name %>% 
      stringr::str_sub(1, 1) %>% 
      tolower %>% 
      forcats::fct_relevel(letters[1:26])) %>% 
  dplyr::group_by(first_letter, repo) %>% 
  dplyr::count() %>% 
  dplyr::group_by(repo) %>% 
  dplyr::mutate(prop = n/sum(n),
                label = ifelse(rank(-prop) <= 5, as.character(first_letter), ""))

combine_df

## # A tibble: 115 x 5
## # Groups:   repo [5]
##    first_letter repo              n   prop label
##    <fct>        <chr>         <int>  <dbl> <chr>
##  1 a            BioCann          13 0.0137 ""   
##  2 a            BioCexp          22 0.0580 ""   
##  3 a            BioCsoft         96 0.0548 ""   
##  4 a            BioCworkflows     2 0.0741 ""   
##  5 a            CRAN            609 0.0413 ""   
##  6 b            BioCann         101 0.106  b    
##  7 b            BioCexp          21 0.0554 ""   
##  8 b            BioCsoft        104 0.0593 ""   
##  9 b            BioCworkflows     2 0.0741 ""   
## 10 b            CRAN            769 0.0521 ""   
## #  with 105 more rows
…
