Comparing different
…
Computing the dimensionality reduction objects

## We:
## + convert the iris data to a tibble
## + remove one duplicated row
## + add unique identifier to each row

iris_tbl = iris %>% 
  as_tibble() %>% 
  distinct() %>% 
  tibble::rownames_to_column("id")

iris_tbl

## # A tibble: 149 x 6
##    id    Sepal.Length Sepal.Width Petal.Length Petal.Width Species
##    <chr>        <dbl>       <dbl>        <dbl>       <dbl> <fct>  
##  1 1              5.1         3.5          1.4         0.2 setosa 
##  2 2              4.9         3            1.4         0.2 setosa 
##  3 3              4.7         3.2          1.3         0.2 setosa 
##  4 4              4.6         3.1          1.5         0.2 setosa 
##  5 5              5           3.6          1.4         0.2 setosa 
##  6 6              5.4         3.9          1.7         0.4 setosa 
##  7 7              4.6         3.4          1.4         0.3 setosa 
##  8 8              5           3.4          1.5         0.2 setosa 
##  9 9              4.4         2.9          1.4         0.2 setosa 
## 10 10             4.9         3.1          1.5         0.1 setosa 
## #  with 139 more rows
…
Extensions

For the tidyverse fanatics (myself included), you will see that we have made three plots with similar structures and cringe a little bit. Here is another way to make similar plot by pivoting.

iris_long_plotdf = iris_plotdf %>% 
  tidyr::pivot_longer(cols = matches("1|2"), 
                      names_to = c("method", "dim"),
                      names_sep = "_") %>% 
  tidyr::pivot_wider(names_from = dim, 
                     values_from = value)

iris_long_plotdf

## # A tibble: 447 x 9
##    id    Sepal.Length Sepal.Width Petal.Length Petal.Width Species method    `1`
##    <chr>        <dbl>       <dbl>        <dbl>       <dbl> <fct>   <chr>   <dbl>
##  1 1              5.1         3.5          1.4         0.2 setosa  pca     -2.67
##  2 1              5.1         3.5          1.4         0.2 setosa  tsne   -14.2 
##  3 1              5.1         3.5          1.4         0.2 setosa  umap    16.1 
##  4 2              4.9         3            1.4         0.2 setosa  pca     -2.70
##  5 2              4.9         3            1.4         0.2 setosa  tsne   -11.9 
##  6 2              4.9         3            1.4         0.2 setosa  umap    15.9 
##  7 3              4.7         3.2          1.3         0.2 setosa  pca     -2.88
##  8 3              4.7         3.2          1.3         0.2 setosa  tsne   -11.7 
##  9 3              4.7         3.2          1.3         0.2 setosa  umap    15.4 
## 10 4              4.6         3.1          1.5         0.2 setosa  pca     -2.74
## #  with 437 more rows, and 1 more variable: `2` <dbl>
…
